Match chroma vectors against templates — compmus_match_pitch_template • compmus
…
get_tidy_audio_analysis("5UVsbUV0Kh033cqsZ5sLQi") %>%
  compmus_align(sections, segments) %>%
  select(sections) %>%
  unnest(sections) %>%
  mutate(
    pitches =
      map(segments,
        compmus_summarise, pitches,
        method = "mean", norm = "manhattan"
      )
  ) %>%
  compmus_match_pitch_template(chord_templates, "euclidean", "manhattan")

#> # A tibble: 63 x 4
#>    start duration name      d
#>    <dbl>    <dbl> <fct> <dbl>
#>  1   0       24.8 D:min 0.545
#>  2   0       24.8 F:maj 0.556
#>  3   0       24.8 A:min 0.537
#>  4   0       24.8 C:maj 0.531
#>  5   0       24.8 E:min 0.499
#>  6   0       24.8 G:maj 0.530
#>  7   0       24.8 B:min 0.532
#>  8  24.8     28.6 D:min 0.544
#>  9  24.8     28.6 F:maj 0.542
#> 10  24.8     28.6 A:min 0.522
#> # … with 53 more rows
…
