Compute a tempogram from Spotify segment onsets — tempogram • compmus
…
      bpms
      Vector of tempi in beats per minute to include in the tempogram
(default 30--200 for non-cyclic and 80--160 for cyclic, inclusive of all
integer tempi).

      window_function
      Window function for the Fourier analysis (default
Hamming).

    Examples

library(tidyverse)
get_tidy_audio_analysis('6PJasPKAzNLSOzxeAH33j2') %>%
    tempogram(window_size = 4, hop_size = 2)
#> # A tibble: 85,650 x 3
#>     time   bpm  power
#>    <dbl> <int>  <dbl>
#>  1  2.00    30 0.0113
#>  2  2.00    31 0.0127
#>  3  2.00    32 0.0145
#>  4  2.00    33 0.0163
#>  5  2.00    34 0.0181
#>  6  2.00    35 0.0197
#>  7  2.00    36 0.0209
#>  8  2.00    37 0.0217
#>  9  2.00    38 0.0221
#> 10  2.00    39 0.0221
#> # … with 85,640 more rows
…
